1 0.00
2 0.00
4 0.00
8 0.00
16 0.00
32 0.00
64 0.00
128 0.00
256 0.00
512 0.00
1024 0.00
2048 0.00
4096 0.00
8192 0.00
16384 0.00
32768 0.01
65536 0.01
131072 0.03
262144 0.06
524288 0.11
1048576 0.23
2097152 0.48
4194304 0.92
80000000 18.1
